<?xml version="1.0" encoding="utf-8"?>
<!DOCTYPE eagle SYSTEM "eagle.dtd">
<eagle version="8.4.3">
<drawing>
<settings>
<setting alwaysvectorfont="no"/>
<setting verticaltext="up"/>
</settings>
<grid distance="0.1" unitdist="inch" unit="inch" style="lines" multiple="1" display="no" altdistance="0.01" altunitdist="inch" altunit="inch"/>
<layers>
<layer number="1" name="Top" color="4" fill="1" visible="yes" active="yes"/>
<layer number="2" name="Route2" color="1" fill="3" visible="no" active="yes"/>
<layer number="3" name="Route3" color="4" fill="3" visible="no" active="yes"/>
<layer number="4" name="Route4" color="1" fill="4" visible="no" active="yes"/>
<layer number="5" name="Route5" color="4" fill="4" visible="no" active="yes"/>
<layer number="6" name="Route6" color="1" fill="8" visible="no" active="yes"/>
<layer number="7" name="Route7" color="4" fill="8" visible="no" active="yes"/>
<layer number="8" name="Route8" color="1" fill="2" visible="no" active="yes"/>
<layer number="9" name="Route9" color="4" fill="2" visible="no" active="yes"/>
<layer number="10" name="Route10" color="1" fill="7" visible="no" active="yes"/>
<layer number="11" name="Route11" color="4" fill="7" visible="no" active="yes"/>
<layer number="12" name="Route12" color="1" fill="5" visible="no" active="yes"/>
<layer number="13" name="Route13" color="4" fill="5" visible="no" active="yes"/>
<layer number="14" name="Route14" color="1" fill="6" visible="no" active="yes"/>
<layer number="15" name="Route15" color="4" fill="6" visible="no" active="yes"/>
<layer number="16" name="Bottom" color="1" fill="1" visible="yes" active="yes"/>
<layer number="17" name="Pads" color="2" fill="1" visible="yes" active="yes"/>
<layer number="18" name="Vias" color="2" fill="1" visible="yes" active="yes"/>
<layer number="19" name="Unrouted" color="6" fill="1" visible="yes" active="yes"/>
<layer number="20" name="Dimension" color="24" fill="1" visible="yes" active="yes"/>
<layer number="21" name="tPlace" color="7" fill="1" visible="yes" active="yes"/>
<layer number="22" name="bPlace" color="7" fill="1" visible="yes" active="yes"/>
<layer number="23" name="tOrigins" color="15" fill="1" visible="yes" active="yes"/>
<layer number="24" name="bOrigins" color="15" fill="1" visible="yes" active="yes"/>
<layer number="25" name="tNames" color="7" fill="1" visible="yes" active="yes"/>
<layer number="26" name="bNames" color="7" fill="1" visible="yes" active="yes"/>
<layer number="27" name="tValues" color="7" fill="1" visible="yes" active="yes"/>
<layer number="28" name="bValues" color="7" fill="1" visible="yes" active="yes"/>
<layer number="29" name="tStop" color="7" fill="3" visible="no" active="yes"/>
<layer number="30" name="bStop" color="7" fill="6" visible="no" active="yes"/>
<layer number="31" name="tCream" color="7" fill="4" visible="no" active="yes"/>
<layer number="32" name="bCream" color="7" fill="5" visible="no" active="yes"/>
<layer number="33" name="tFinish" color="6" fill="3" visible="no" active="yes"/>
<layer number="34" name="bFinish" color="6" fill="6" visible="no" active="yes"/>
<layer number="35" name="tGlue" color="7" fill="4" visible="no" active="yes"/>
<layer number="36" name="bGlue" color="7" fill="5" visible="no" active="yes"/>
<layer number="37" name="tTest" color="7" fill="1" visible="no" active="yes"/>
<layer number="38" name="bTest" color="7" fill="1" visible="no" active="yes"/>
<layer number="39" name="tKeepout" color="4" fill="11" visible="yes" active="yes"/>
<layer number="40" name="bKeepout" color="1" fill="11" visible="yes" active="yes"/>
<layer number="41" name="tRestrict" color="4" fill="10" visible="yes" active="yes"/>
<layer number="42" name="bRestrict" color="1" fill="10" visible="yes" active="yes"/>
<layer number="43" name="vRestrict" color="2" fill="10" visible="yes" active="yes"/>
<layer number="44" name="Drills" color="7" fill="1" visible="no" active="yes"/>
<layer number="45" name="Holes" color="7" fill="1" visible="no" active="yes"/>
<layer number="46" name="Milling" color="3" fill="1" visible="no" active="yes"/>
<layer number="47" name="Measures" color="7" fill="1" visible="no" active="yes"/>
<layer number="48" name="Document" color="7" fill="1" visible="yes" active="yes"/>
<layer number="49" name="Reference" color="7" fill="1" visible="yes" active="yes"/>
<layer number="51" name="tDocu" color="7" fill="1" visible="yes" active="yes"/>
<layer number="52" name="bDocu" color="7" fill="1" visible="yes" active="yes"/>
<layer number="88" name="SimResults" color="9" fill="1" visible="yes" active="yes"/>
<layer number="89" name="SimProbes" color="9" fill="1" visible="yes" active="yes"/>
<layer number="90" name="Modules" color="5" fill="1" visible="yes" active="yes"/>
<layer number="91" name="Nets" color="2" fill="1" visible="yes" active="yes"/>
<layer number="92" name="Busses" color="1" fill="1" visible="yes" active="yes"/>
<layer number="93" name="Pins" color="2" fill="1" visible="yes" active="yes"/>
<layer number="94" name="Symbols" color="4" fill="1" visible="yes" active="yes"/>
<layer number="95" name="Names" color="7" fill="1" visible="yes" active="yes"/>
<layer number="96" name="Values" color="7" fill="1" visible="yes" active="yes"/>
<layer number="97" name="Info" color="7" fill="1" visible="yes" active="yes"/>
<layer number="98" name="Guide" color="6" fill="1" visible="yes" active="yes"/>
</layers>
<library>
<packages>
<package name="ADW1203HLW">
<pad name="RESET-" x="-8" y="3.75" drill="0.6"/>
<pad name="COM+" x="-8" y="0" drill="0.6"/>
<pad name="SET-" x="-8" y="-3.75" drill="0.6"/>
<pad name="SW2" x="13" y="-3.75" drill="1"/>
<pad name="SW1" x="9.5" y="3.75" drill="1"/>
<wire x1="-9.5" y1="5" x2="14.5" y2="5" width="0.127" layer="21"/>
<wire x1="14.5" y1="5" x2="14.5" y2="-5" width="0.127" layer="21"/>
<wire x1="14.5" y1="-5" x2="-9.5" y2="-5" width="0.127" layer="21"/>
<wire x1="-9.5" y1="-5" x2="-9.5" y2="5" width="0.127" layer="21"/>
<text x="-9" y="6" size="1.27" layer="25">&gt;NAME</text>
</package>
</packages>
<symbols>
<symbol name="ADW1203HLW">
<pin name="S-" x="-12.7" y="7.62" length="middle"/>
<pin name="COM+" x="-12.7" y="0" length="middle"/>
<pin name="R-" x="-12.7" y="-7.62" length="middle"/>
<pin name="SW1" x="12.7" y="5.08" length="middle" rot="R180"/>
<pin name="SW2" x="12.7" y="-5.08" length="middle" rot="R180"/>
<wire x1="-7.62" y1="7.62" x2="-7.62" y2="5.08" width="0.254" layer="94" curve="-180"/>
<wire x1="-7.62" y1="5.08" x2="-7.62" y2="2.54" width="0.254" layer="94" curve="-180"/>
<wire x1="-7.62" y1="2.54" x2="-7.62" y2="0" width="0.254" layer="94" curve="-180"/>
<wire x1="-7.62" y1="0" x2="-7.62" y2="-2.54" width="0.254" layer="94" curve="-180"/>
<wire x1="-7.62" y1="-2.54" x2="-7.62" y2="-5.08" width="0.254" layer="94" curve="-180"/>
<wire x1="-7.62" y1="-5.08" x2="-7.62" y2="-7.62" width="0.254" layer="94" curve="-180"/>
<text x="-5.08" y="2.54" size="1.778" layer="94">S</text>
<text x="-5.08" y="-5.08" size="1.778" layer="94">R</text>
<wire x1="7.62" y1="-5.08" x2="7.62" y2="0" width="0.254" layer="94"/>
<wire x1="7.62" y1="0" x2="5.08" y2="5.08" width="0.254" layer="94"/>
</symbol>
</symbols>
<devicesets>
<deviceset name="ADW1203HLW" prefix="K">
<gates>
<gate name="G$1" symbol="ADW1203HLW" x="0" y="0"/>
</gates>
<devices>
<device name="" package="ADW1203HLW">
<connects>
<connect gate="G$1" pin="COM+" pad="COM+"/>
<connect gate="G$1" pin="R-" pad="RESET-"/>
<connect gate="G$1" pin="S-" pad="SET-"/>
<connect gate="G$1" pin="SW1" pad="SW1"/>
<connect gate="G$1" pin="SW2" pad="SW2"/>
</connects>
<technologies>
<technology name=""/>
</technologies>
</device>
</devices>
</deviceset>
</devicesets>
</library>
</drawing>
</eagle>
